<?xml version="1.0" encoding="UTF-8" standalone="no"?>
<!-- Generator: Adobe Illustrator 19.0.0, SVG Export Plug-In . SVG Version: 6.00 Build 0)  -->

<svg
        xmlns:dc="http://purl.org/dc/elements/1.1/"
        xmlns:cc="http://creativecommons.org/ns#"
        xmlns:rdf="http://www.w3.org/1999/02/22-rdf-syntax-ns#"
        xmlns:svg="http://www.w3.org/2000/svg"
        xmlns="http://www.w3.org/2000/svg"
        xmlns:sodipodi="http://sodipodi.sourceforge.net/DTD/sodipodi-0.dtd"
        xmlns:inkscape="http://www.inkscape.org/namespaces/inkscape"
        version="1.1"
        id="Layer_1"
        x="0px"
        y="0px"
        viewBox="0 0 31.999999 31.999999"
        xml:space="preserve"
        sodipodi:docname="close.svg"
        inkscape:version="0.92.4 (fd57863, 2020-04-02)"
        width="32"
        height="32" xmlns:xsi="http://www.w3.org/2001/XMLSchema-instance"
        xsi:schemaLocation="http://purl.org/dc/elements/1.1/ "><metadata
   id="metadata39"><rdf:RDF><cc:Work
       rdf:about=""><dc:format>image/svg+xml</dc:format><dc:type
        rdf:resource="http://purl.org/dc/dcmitype/StillImage"/><dc:title></dc:title></cc:Work></rdf:RDF></metadata>
    <defs
            id="defs37"/>
    <sodipodi:namedview
            pagecolor="#ffffff"
            bordercolor="#666666"
            borderopacity="1"
            objecttolerance="10"
            gridtolerance="10"
            guidetolerance="10"
            inkscape:pageopacity="0"
            inkscape:pageshadow="2"
            inkscape:window-width="1049"
            inkscape:window-height="480"
            id="namedview35"
            showgrid="false"
            inkscape:zoom="0.58984375"
            inkscape:cx="166.68001"
            inkscape:cy="171.61102"
            inkscape:window-x="733"
            inkscape:window-y="27"
            inkscape:window-maximized="0"
            inkscape:current-layer="Layer_1"/>
    <path
            style="display:inline;opacity:1;fill:#ff3501;stroke-width:0.08458839"
            d="M 0,29.6075 2.39258,32 15.99996,18.39258 29.60742,32 32,29.6075 18.39254,16 32,2.39258 29.60742,0 15.99996,13.6075 2.39258,0 0,2.39258 13.60747,16 Z"
            id="polygon2"
            inkscape:connector-curvature="0"/>
    <g
            id="g4"
            style="display:inline"
            transform="translate(0,-346.30301)">
</g>
    <g
            id="g6"
            transform="translate(0,-346.30301)">
</g>
    <g
            id="g8"
            transform="translate(0,-346.30301)">
</g>
    <g
            id="g10"
            transform="translate(0,-346.30301)">
</g>
    <g
            id="g12"
            transform="translate(0,-346.30301)">
</g>
    <g
            id="g14"
            transform="translate(0,-346.30301)">
</g>
    <g
            id="g16"
            transform="translate(0,-346.30301)">
</g>
    <g
            id="g18"
            style="display:inline"
            transform="translate(0,-346.30301)">
</g>
    <g
            id="g20"
            transform="translate(0,-346.30301)">
</g>
    <g
            id="g22"
            transform="translate(0,-346.30301)">
</g>
    <g
            id="g24"
            transform="translate(0,-346.30301)">
</g>
    <g
            id="g26"
            transform="translate(0,-346.30301)">
</g>
    <g
            id="g28"
            transform="translate(0,-346.30301)">
</g>
    <g
            id="g30"
            transform="translate(0,-346.30301)">
</g>
    <g
            id="g32"
            transform="translate(0,-346.30301)">
</g>
</svg>